<?xml version="1.0" encoding="utf-8" standalone="no"?>
<!DOCTYPE svg PUBLIC "-//W3C//DTD SVG 1.1//EN"
  "http://www.w3.org/Graphics/SVG/1.1/DTD/svg11.dtd">
<!-- Created with matplotlib (http://matplotlib.org/) -->
<svg height="432pt" version="1.1" viewBox="0 0 576 432" width="576pt" xmlns="http://www.w3.org/2000/svg" xmlns:xlink="http://www.w3.org/1999/xlink">
 <defs>
  <style type="text/css">
*{stroke-linecap:square;stroke-linejoin:round;}
  </style>
 </defs>
 <g id="figure_1">
  <g id="patch_1">
   <path d="
M0 432
L576 432
L576 0
L0 0
z
" style="fill:#ffffff;"/>
  </g>
  <g id="axes_1">
   <g id="patch_2">
    <path d="
M72 388.8
L518.4 388.8
L518.4 43.2
L72 43.2
z
" style="fill:#ffffff;"/>
   </g>
   <g id="line2d_1">
    <path clip-path="url(#p7ff5b81e1d)" d="
M72 192.793
L72.1112 193.485
L72.2225 192.962
L72.3115 193.173
L72.4227 192.925
L72.5117 193.021
L72.6897 192.923
L73.0457 192.87
L73.5574 192.844
L73.8244 192.676
L74.0914 192.738
L75.1816 192.636
L75.4931 192.556
L76.7835 192.454
L77.4065 192.358
L77.8069 192.275
L78.0739 192.339
L79.0974 192.363
L81.0775 192.42
L81.3445 192.38
L81.8785 192.3
L82.0565 192.203
L82.3234 192.262
L82.6127 192.246
L87.0847 192.511
L87.6187 192.593
L88.1526 192.624
L88.4196 192.643
L88.7756 192.697
L89.3096 192.37
L89.5766 192.407
L91.0895 192.205
L91.1785 192.146
L91.4455 192.32
L91.7124 192.14
L91.9794 192.23
L92.9584 192.333
L95.0943 192.421
L95.3612 192.4
L96.6962 192.483
L97.0522 192.413
L97.4081 192.297
L97.6751 192.216
L98.0311 192.278
L98.2981 192.221
L98.7431 192.23
L101.68 192.381
L102.303 192.565
L103.371 192.682
L104.172 192.74
L104.884 192.731
L105.151 192.573
L106.397 192.786
L106.664 192.621
L107.109 192.582
L109.422 192.371
L110.045 192.338
L110.312 192.333
L111.024 192.362
L115.385 192.296
L115.652 191.702
L115.741 191.857
L116.008 191.769
L116.72 191.889
L117.076 191.98
L117.432 191.935
L117.61 191.98
L118.5 192.143
L118.678 192.089
L119.123 192.136
L119.568 192.1
L119.746 192.122
L120.191 192.197
L120.725 192.219
L121.437 192.132
L121.971 192.239
L123.128 192.331
L124.285 192.216
L125.086 192.285
L126.332 192.259
L126.599 192.218
L127.222 192.291
L127.667 192.244
L128.2 192.024
L128.556 192.011
L129.179 192.175
L129.713 192.173
L130.781 192.215
L131.493 192.218
L131.938 192.268
L132.917 192.304
L134.519 192.307
L136.299 192.128
L137.634 192.198
L138.435 192.306
L138.791 192.124
L139.147 192.209
L140.215 192.336
L141.105 192.296
L141.55 192.324
L142.262 192.313
L142.529 192.312
L142.796 192.251
L143.152 192.22
L143.864 192.405
L144.131 192.307
L144.487 192.348
L144.843 192.309
L145.288 192.222
L145.466 192.229
L145.822 192.267
L148.491 192.354
L149.203 192.364
L149.559 192.292
L150.182 192.296
L151.784 192.395
L152.674 192.326
L153.653 192.137
L154.432 192.238
L155.478 192.179
L156.456 192.113
L156.723 192.178
L156.99 192.046
L157.168 192.108
L157.791 192.179
L158.681 192.271
L159.393 192.087
L160.016 192.015
L160.283 192.059
L160.55 192.078
L160.817 192.117
L161.529 192.253
L162.152 192.264
L162.508 192.26
L162.864 192.304
L163.131 192.151
L163.398 192.233
L166.869 192.411
L167.136 192.439
L169.272 192.322
L169.628 192.29
L170.073 192.078
L170.251 192.135
L170.785 191.68
L171.586 190.801
L171.853 188.404
L172.031 187.208
L173.455 169.679
L173.544 169.586
L173.722 168.912
L173.989 170.209
L174.078 169.916
L174.167 170.105
L174.433 168.952
L174.611 169.817
L174.7 170.329
L175.412 183.866
L175.857 195.131
L176.147 199.566
L176.236 199.732
L176.414 200.617
L176.503 200.165
L176.881 195.98
L176.97 195.997
L177.148 194.922
L177.504 197.699
L178.661 208.021
L178.75 208.166
L179.017 206.575
L180.352 200.851
L181.242 199.103
L181.798 197.954
L182.065 198.147
L182.421 198.148
L183.133 195.69
L183.489 193.885
L184.201 191.812
L184.646 190.498
L185.269 188.495
L185.625 187.256
L185.892 186.685
L186.426 186.071
L186.515 186
L187.939 190.163
L188.383 190.617
L188.65 190.706
L189.006 191.329
L189.362 192.107
L189.718 193.038
L189.985 193.765
L190.252 181.853
L190.341 187.895
L190.43 187.243
L190.519 190.643
L190.608 188.005
L190.697 189.238
L190.786 188.038
L190.875 188.637
L190.964 188.101
L191.32 189.088
L191.498 188.515
L191.587 188.178
L191.676 188.561
L191.765 188.476
L192.032 189.334
L192.655 191.398
L193.011 191.633
L193.367 192.138
L193.901 192.277
L194.168 192.574
L194.702 193.059
L194.791 193.168
L194.969 192.99
L195.147 192.899
L195.503 192.779
L196.215 192.675
L196.571 192.708
L197.194 192.726
L197.283 192.703
L197.55 192.922
L197.906 192.994
L198.44 192.999
L198.796 192.906
L199.953 192.804
L200.487 192.767
L201.021 192.7
L201.377 192.617
L201.555 192.626
L201.911 192.669
L203.068 192.662
L203.246 192.666
L203.869 192.665
L204.937 192.768
L205.649 192.748
L205.916 192.587
L206.183 192.667
L206.45 192.516
L207.339 192.652
L208.674 192.783
L209.03 192.739
L209.297 192.618
L209.564 192.456
L209.831 191.937
L209.92 191.96
L210.098 191.847
L210.365 191.977
L210.632 191.167
L210.721 191.023
L210.988 188.094
L211.789 182.098
L212.056 175.828
L212.234 171.449
L212.946 159.71
L213.035 158.93
L213.391 167.549
L213.836 179.854
L214.37 204.935
L214.637 211.993
L214.726 213.349
L215.082 199.552
L215.616 180.62
L215.705 184.401
L215.794 183.898
L216.061 192.151
L216.595 206.725
L217.04 215.26
L217.129 215.346
L217.307 216.48
L217.574 209.438
L217.663 209.008
L217.93 205.521
L218.642 199.987
L219.087 196.543
L219.176 196.687
L219.354 196.367
L219.621 197.586
L220.066 199.194
L220.244 199.611
L220.6 201.725
L220.956 203.148
L221.312 203.831
L221.401 203.979
L221.579 203.759
L221.668 203.623
L222.38 199.694
L222.825 196.999
L223.092 196.321
L223.359 195.76
L223.715 194.225
L224.605 191.328
L225.139 190.061
L226.473 187.957
L226.651 187.915
L227.007 187.874
L227.452 187.848
L227.719 188.815
L227.808 188.552
L227.897 188.673
L228.253 188.175
L228.342 189.19
L228.431 188.796
L228.52 189.282
L228.609 189.193
L228.876 187.159
L228.965 187.773
L229.054 187.544
L229.143 187.841
L229.41 184.602
L229.499 184.367
L229.766 189.178
L229.855 187.18
L229.944 187.583
L230.033 186.515
L230.122 187.823
L230.211 187.579
L230.478 190.358
L230.567 191.356
L230.656 191.324
L230.923 192.459
L231.012 191.953
L231.101 192.037
L231.19 191.76
L231.279 191.862
L231.457 191.749
L231.724 191.974
L231.991 191.774
L232.258 191.794
L232.347 191.817
L232.614 192.382
L232.703 192.183
L232.792 192.239
L232.97 192.184
L233.504 192.026
L233.771 192.215
L234.038 192.234
L234.394 192.39
L235.195 192.406
L235.64 192.326
L236.352 192.175
L236.708 192.35
L236.975 192.269
L237.242 192.405
L238.043 192.46
L241.514 192.434
L242.137 192.596
L242.671 192.536
L244.361 192.497
L245.607 192.549
L247.031 192.702
L247.387 192.529
L247.654 192.609
L248.099 192.547
L249.167 192.593
L249.612 192.581
L252.193 192.508
L252.371 192.465
L253.973 192.486
L254.329 192.58
L254.685 192.585
L256.02 192.571
L256.287 192.504
L256.465 192.493
L256.732 192.037
L256.821 191.949
L256.999 192.032
L257.177 192.091
L257.533 191.831
L257.8 190.067
L258.423 188.116
L258.512 187.932
L259.224 181.489
L259.58 176.734
L260.025 172.318
L260.114 171.875
L260.292 173.04
L260.826 177.794
L261.182 180.783
L262.072 206.29
L262.161 208.284
L262.339 204.177
L263.228 181.996
L263.495 179.238
L263.673 181.863
L264.029 189.072
L264.919 213.398
L265.186 216.664
L265.275 214.988
L265.364 215.117
L266.076 208.618
L266.477 204.562
L266.744 198.464
L267.189 194.002
L267.278 194.394
L267.367 194.177
L267.634 195.409
L268.346 200.77
L268.702 203.289
L269.058 204.753
L269.414 205.391
L269.592 205.558
L269.77 204.197
L270.393 200.523
L270.66 198.978
L271.105 197.227
L271.639 195.698
L272.172 194.262
L272.528 193.279
L273.151 192.425
L274.13 190.053
L274.486 188.856
L274.575 188.617
L274.664 188.716
L274.931 188.526
L275.376 188.333
L275.643 188.943
L275.732 188.873
L275.91 188.968
L276.177 190.057
L276.266 189.414
L276.355 189.445
L276.444 189.072
L276.711 179.899
L276.8 183.673
L276.889 182.939
L277.067 185.133
L277.334 179.675
L277.423 183.276
L277.512 183.223
L277.601 185.35
L277.69 185.105
L277.868 186.506
L278.046 186.065
L278.135 185.803
L278.402 188.281
L278.491 188.423
L278.758 189.473
L279.47 190.966
L280.271 191.873
L280.538 191.938
L280.627 191.928
L280.894 192.128
L281.428 192.249
L281.606 192.304
L282.051 192.447
L282.407 192.606
L282.763 192.613
L283.119 192.57
L283.475 192.75
L284.009 192.781
L284.365 192.86
L284.721 192.807
L285.344 192.666
L286.234 192.891
L286.768 192.874
L287.302 193.015
L288.192 193.1
L289.794 193.12
L290.683 193.139
L290.95 192.99
L291.217 192.983
L291.662 192.815
L292.285 192.763
L292.641 192.845
L293.887 192.966
L294.154 192.918
L297.625 193.081
L298.426 192.893
L298.693 192.189
L299.049 191.653
L299.316 190.625
L299.939 189.256
L300.206 188.971
L300.473 187.163
L300.562 186.79
L300.651 187.163
L300.74 187.053
L300.829 187.241
L301.007 186.935
L301.096 186.748
L301.185 186.97
L301.274 186.925
L301.452 187.052
L301.719 178.414
L301.986 173.432
L302.075 174.521
L302.164 173.982
L302.253 174.468
L302.52 168.992
L302.609 168.061
L302.698 168.289
L302.876 167.794
L304.033 213.845
L304.122 211.909
L304.211 213.593
L304.3 212.944
L304.656 198.684
L305.012 188.685
L305.19 185.92
L305.279 187.442
L305.368 187.379
L305.457 188.266
L305.991 209.306
L306.525 225.809
L306.614 227.078
L306.703 226.59
L306.792 227.199
L306.881 227.091
L307.148 223.223
L307.237 222.449
L307.593 214.231
L308.661 194.376
L308.75 194.512
L309.017 193.044
L309.194 194.448
L310.707 207.455
L310.796 207.255
L310.885 207.46
L310.974 207.402
L311.063 207.506
L311.419 206.204
L311.686 204.882
L312.042 203.521
L312.398 202.606
L312.487 202.38
L312.754 200.826
L313.822 196.693
L314.178 195.664
L315.246 193.194
L315.513 194.345
L315.691 193.311
L316.047 190.323
L316.136 190.915
L316.225 190.635
L316.314 190.903
L316.492 190.369
L316.848 189.084
L317.115 186.095
L317.382 193.253
L317.471 192.45
L317.56 193.732
L317.649 193.638
L317.916 181.438
L318.005 185.506
L318.094 184.223
L318.183 186.26
L318.272 186.15
L318.45 187.617
L318.539 187.285
L318.628 187.357
L318.717 187.181
L318.984 188.802
L319.251 190.841
L319.34 190.667
L319.518 190.999
L319.696 191.023
L319.963 191.408
L320.141 191.351
L320.23 191.304
L320.497 191.561
L321.209 192.187
L321.476 192.028
L322.01 192.126
L322.9 192.23
L323.434 192.201
L326.771 192.281
L327.127 192.157
L327.572 192.057
L327.839 192.142
L328.106 192.103
L328.551 192.21
L330.064 192.317
L330.331 192.161
L330.598 192.241
L330.865 192.18
L331.221 192.25
L331.577 192.234
L332.645 192.342
L333.268 192.288
L333.891 192.224
L334.247 192.187
L336.472 192.132
L336.828 192.149
L337.183 192.204
L338.251 192.215
L338.429 192.222
L338.785 192.262
L339.675 192.229
L339.942 192.193
L340.565 192.276
L341.633 192.305
L341.989 192.126
L342.256 192.114
L342.879 192.226
L344.481 192.373
L345.371 192.315
L345.994 192.241
L346.439 192.299
L346.795 192.119
L347.062 192.197
L347.329 192.058
L347.596 192.158
L350.444 192.245
L351.512 192.333
L352.758 192.336
L353.114 192.3
L355.25 192.298
L355.606 192.242
L356.673 191.703
L357.029 191.681
L357.296 191.311
L357.474 191.547
L357.652 191.728
L358.364 190.574
L358.542 190.448
L359.076 189.162
L359.432 187.929
L359.521 188.069
L359.877 187.502
L359.966 187.23
L360.233 185.151
L360.322 184.679
L360.411 184.797
L360.856 183.811
L360.945 183.668
L361.212 180.598
L361.657 177.948
L362.369 176.417
L362.636 175.875
L362.903 178.449
L363.081 179.888
L363.259 181.208
L364.238 202.164
L364.416 204.261
L364.505 203.625
L364.594 203.892
L364.683 203.593
L364.95 198.085
L365.039 196.945
L365.306 189.714
L365.395 189.233
L365.662 185.752
L365.751 186.568
L365.84 186.122
L366.196 187.762
L366.73 195.387
L367.442 213.527
L367.531 213.124
L367.709 214.069
L367.976 213.414
L368.065 213.296
L368.421 210.291
L368.599 208.862
L369.311 196.479
L369.667 192.644
L369.756 192.113
L369.845 192.284
L370.023 192.042
L370.112 191.891
L371.803 203.47
L371.892 203.201
L371.981 203.294
L372.07 203.162
L372.426 201.985
L374.472 193.396
L374.828 192.477
L375.184 191.348
L375.54 190.624
L376.252 189.535
L376.519 190.286
L376.786 187.521
L376.875 187.774
L377.053 187.266
L377.32 187.91
L377.587 179.005
L377.765 185.824
L378.032 182.18
L378.121 181.516
L378.21 182.039
L378.566 181.382
L378.833 182.957
L378.922 183.229
L379.456 190.425
L379.545 190.029
L379.634 190.744
L379.723 190.722
L379.99 189.493
L380.079 190.146
L380.168 190.09
L380.435 190.783
L380.613 191.084
L380.791 190.831
L380.88 190.673
L380.969 190.73
L381.147 190.664
L381.503 191.301
L381.77 191.733
L381.948 191.69
L382.126 191.712
L382.393 191.795
L383.016 191.943
L383.461 192.033
L383.906 192.213
L387.288 192.36
L388.356 192.109
L388.979 192.08
L390.67 192.077
L391.115 192.189
L391.649 192.164
L392.094 192.178
L392.361 192.172
L392.628 192.021
L392.806 192
L393.428 191.933
L394.318 191.954
L394.763 191.97
L395.03 191.951
L395.742 191.981
L396.276 191.846
L396.988 191.799
L397.522 191.876
L397.789 232.652
L397.878 240.519
L397.967 230.697
L398.056 232.441
L398.234 226.609
L398.501 219.632
L399.302 207.122
L399.925 201.347
L400.637 197.432
L401.171 195.634
L401.705 194.289
L402.239 193.467
L402.595 193.112
L403.574 192.357
L403.93 192.239
L404.998 191.797
L405.443 191.726
L408.558 191.624
L409.893 191.703
L410.16 191.706
L410.427 191.738
L410.961 191.788
L421.551 191.795
L422.53 191.851
L423.509 191.625
L423.776 191.722
L424.31 191.699
L424.488 191.718
L425.645 191.702
L427.247 191.77
L428.938 191.641
L432.586 191.625
L433.298 191.636
L434.9 191.658
L435.701 191.649
L437.036 191.699
L437.481 191.748
L443.177 191.671
L443.355 191.604
L443.622 191.698
L444.067 191.655
L446.381 191.713
L446.737 191.695
L447.182 191.584
L447.894 191.614
L448.872 191.673
L449.762 191.523
L450.029 191.51
L450.919 191.553
L452.877 191.523
L453.233 191.528
L454.479 191.601
L454.746 191.687
L455.658 191.563
L455.925 191.662
L456.37 191.63
L459.396 191.532
L459.574 191.574
L461.265 191.565
L461.532 191.54
L462.867 191.656
L463.045 191.558
L463.49 191.516
L464.469 191.552
L465.804 191.68
L466.338 191.735
L467.317 191.658
L467.673 191.703
L468.385 191.751
L468.652 232.636
L468.741 219.892
L468.83 224.475
L468.919 218.262
L469.008 219.132
L469.275 213.077
L470.432 200.656
L471.055 197.263
L471.678 195.157
L472.3 193.781
L473.101 192.714
L473.546 192.464
L473.902 192.314
L474.525 192.115
L475.148 191.979
L475.504 191.996
L476.216 191.784
L479.153 191.691
L479.42 191.696
L479.598 191.77
L480.132 191.769
L481.022 191.68
L482.179 191.687
L482.357 191.64
L484.226 191.623
L484.493 191.706
L484.76 191.582
L485.027 191.602
L485.294 191.507
L485.739 191.543
L488.142 191.636
L488.409 191.719
L488.676 191.681
L488.943 191.757
L489.21 191.622
L489.477 191.725
L491.345 191.779
L492.235 191.626
L492.591 191.677
L492.947 191.617
L493.748 191.585
L497.041 191.665
L497.308 191.677
L497.753 191.693
L499.266 191.824
L499.533 191.683
L499.978 191.67
L500.957 191.687
L501.402 191.725
L501.669 191.754
L501.936 191.749
L502.826 191.663
L504.072 191.738
L504.517 191.659
L504.873 191.664
L505.14 191.68
L505.585 191.694
L506.564 191.711
L507.098 191.76
L507.454 191.729
L507.721 191.618
L507.988 191.716
L509.233 191.741
L510.123 191.665
L513.238 191.603
L513.505 191.779
L513.772 191.715
L515.107 191.662
L517.421 191.625
L517.777 191.678
L518.4 191.736
L518.4 191.736" style="fill:none;stroke:#ff0000;"/>
   </g>
   <g id="line2d_2">
    <path clip-path="url(#p7ff5b81e1d)" d="
M72 176.418
L73.0457 176.36
L73.3794 176.453
L73.6464 176.383
L75.6711 176.453
L76.116 176.497
L81.2555 176.411
L81.5225 176.434
L82.5237 176.377
L83.4359 176.406
L84.5928 176.418
L84.7708 176.472
L84.9488 176.399
L85.1268 176.458
L85.3938 176.396
L89.8435 176.266
L90.1995 176.354
L91.7124 176.506
L93.0474 176.48
L93.9373 176.536
L94.2933 176.449
L94.7383 176.37
L95.0943 176.398
L95.3612 176.426
L96.2512 176.374
L96.9632 176.475
L97.2301 176.356
L97.4971 176.558
L98.3871 176.477
L98.5651 176.434
L99.455 176.32
L99.9 176.328
L102.125 176.383
L102.481 176.375
L102.748 176.415
L103.193 176.445
L104.261 176.516
L104.706 176.586
L105.062 176.757
L105.151 176.83
L105.329 176.698
L105.863 176.501
L106.13 176.762
L106.308 176.636
L106.486 176.586
L106.842 176.53
L108.266 176.403
L108.533 176.489
L108.8 176.367
L109.156 176.383
L109.867 176.534
L111.38 176.771
L113.783 176.489
L113.961 176.535
L114.228 176.412
L114.673 176.418
L114.94 176.367
L116.72 176.349
L116.987 176.387
L117.788 176.384
L119.123 176.299
L119.746 176.282
L120.725 176.281
L120.903 176.329
L125.62 176.542
L126.777 176.453
L127.311 176.578
L128.378 176.663
L129.179 176.708
L130.069 176.67
L132.383 176.389
L133.095 176.567
L133.629 176.502
L134.074 176.364
L134.697 176.259
L135.676 176.331
L136.388 176.533
L136.922 176.479
L137.278 176.546
L137.723 176.503
L137.901 176.432
L138.168 176.521
L138.613 176.471
L139.325 176.349
L139.592 176.399
L140.037 176.478
L140.482 176.4
L140.66 176.433
L141.105 176.527
L141.906 176.605
L142.707 176.592
L143.686 176.518
L147.067 176.578
L147.601 176.598
L147.957 176.604
L148.224 176.588
L148.58 176.596
L149.559 176.71
L150.093 176.597
L150.627 176.586
L150.983 176.584
L151.25 176.602
L151.517 176.588
L152.585 176.43
L154.743 176.445
L155.122 176.456
L155.3 176.426
L155.656 176.406
L155.922 176.489
L156.189 176.412
L157.613 176.477
L157.88 176.485
L158.414 176.49
L158.859 176.592
L159.749 176.61
L160.194 176.586
L160.995 176.519
L162.241 176.519
L162.686 176.495
L164.11 176.423
L164.644 176.496
L164.911 176.53
L165.178 176.529
L165.712 176.523
L169.984 176.485
L170.429 176.522
L170.785 176.354
L171.052 176.351
L171.141 176.344
L171.497 175.299
L171.853 174.063
L172.031 173.516
L172.654 164.293
L172.921 158.74
L173.277 154.725
L173.722 153.023
L174.344 148.161
L174.522 144.11
L174.878 136.075
L175.946 111.633
L176.058 109.782
L176.147 109.886
L176.503 119.795
L177.059 146.723
L177.504 158.342
L178.127 168.962
L178.75 176.886
L179.284 186.613
L180.174 198.697
L180.708 202.45
L180.797 202.154
L180.886 202.33
L181.242 198.384
L181.976 189.597
L182.777 179.29
L183.311 174.275
L184.023 169.814
L184.735 166.809
L185.447 164.827
L185.981 164.183
L186.337 164.521
L186.515 164.807
L186.782 164.896
L187.405 165.964
L188.472 168.421
L189.006 170.63
L189.54 172.161
L189.718 172.251
L189.985 172.316
L190.252 158.338
L190.341 165.136
L190.43 164.298
L190.519 168.093
L190.608 166.356
L190.697 168.095
L190.875 167.567
L191.053 167.156
L191.32 168.784
L191.765 171.077
L192.121 172.142
L192.21 172.145
L192.655 173.003
L193.189 174.484
L193.99 175.818
L194.257 175.954
L196.749 176.295
L197.105 176.256
L197.906 176.311
L199.419 176.307
L199.686 176.298
L200.932 176.408
L201.199 176.227
L201.555 176.327
L202 176.374
L202.445 176.297
L204.314 176.251
L204.581 176.38
L204.848 176.274
L205.115 176.404
L205.471 176.389
L206.45 176.439
L206.806 176.488
L209.119 176.719
L209.564 176.998
L209.831 177.116
L210.187 176.372
L210.454 175.553
L210.899 174.399
L210.988 174.236
L211.433 170.416
L211.7 165.771
L211.789 164.113
L212.234 147.748
L212.679 136.693
L212.768 136.688
L213.391 130.691
L213.569 128.094
L214.281 109.144
L214.726 100.405
L214.815 101.062
L214.904 100.24
L214.993 100.386
L215.705 137.242
L216.061 149.841
L216.328 154.036
L216.595 156.024
L216.773 156.964
L217.04 159.324
L217.396 167.539
L218.909 196.499
L219.354 200.973
L219.799 202.972
L219.888 203.183
L219.977 202.903
L220.066 202.945
L220.244 202.77
L221.49 188.295
L223.003 173.836
L223.804 169.095
L224.783 164.778
L225.672 162.499
L225.85 162.569
L226.295 162.938
L227.63 165.732
L227.719 165.709
L227.986 167.076
L228.253 167.776
L228.52 168.235
L228.609 168.337
L228.876 163.241
L229.054 169.204
L229.143 172.584
L229.232 169.902
L229.321 171.111
L229.499 169.78
L229.766 174.582
L229.855 174.275
L230.033 175.261
L230.567 174.31
L230.656 174.338
L230.923 174.136
L231.19 175.261
L231.279 175.325
L231.546 175.788
L232.347 176.508
L232.614 176.128
L232.792 176.129
L235.64 176.634
L239.2 176.534
L239.734 176.57
L240.001 176.591
L240.357 176.588
L241.425 176.477
L242.404 176.52
L243.205 176.54
L243.917 176.474
L244.183 176.548
L244.45 176.415
L245.073 176.506
L245.34 176.38
L245.874 176.483
L246.319 176.446
L249.879 176.472
L250.146 176.481
L250.413 176.516
L250.947 176.573
L251.926 176.678
L252.549 176.639
L253.083 176.469
L253.528 176.435
L254.507 176.521
L254.774 176.52
L255.041 176.548
L255.397 176.556
L255.664 176.58
L256.821 176.836
L257.088 176.116
L257.177 175.98
L257.444 175.056
L257.889 174.255
L258.156 173.681
L258.423 171.568
L258.512 171.116
L259.135 162.467
L259.402 153.475
L259.669 149.756
L259.847 148.193
L259.936 149.743
L260.025 149.631
L260.114 150.52
L260.292 148.632
L260.648 143.52
L261.093 135.99
L261.182 134.824
L261.716 120.891
L262.161 112.376
L262.25 112.033
L262.517 109.811
L262.694 112.306
L262.783 113.721
L263.94 153.319
L264.296 158.717
L265.275 170.371
L265.453 173.245
L265.898 184.215
L266.165 189.445
L266.477 192.596
L266.922 197.012
L267.011 197.079
L267.189 197.707
L267.278 197.626
L267.367 197.706
L267.901 196.646
L268.524 191.378
L269.503 180.649
L270.126 174.701
L270.482 172.344
L270.838 170.613
L271.283 168.787
L271.728 166.262
L272.973 162.08
L273.062 162.108
L273.24 161.918
L273.507 162.266
L273.863 162.654
L274.308 163.499
L274.664 164.47
L275.465 166.157
L276.355 167.075
L276.444 167.091
L276.711 160.25
L276.889 166.439
L277.067 171.295
L277.156 169.42
L277.245 169.618
L277.334 168.562
L277.423 168.991
L277.512 168.49
L277.601 168.596
L278.046 171.019
L278.135 171.79
L278.224 171.73
L278.402 172.266
L278.847 173.2
L279.292 174.249
L279.915 175.206
L280.627 175.93
L281.695 176.064
L282.318 175.775
L282.585 175.926
L283.297 176.294
L283.742 176.353
L284.365 176.203
L284.81 176.225
L285.344 176.424
L286.412 176.277
L287.124 176.281
L287.658 176.332
L288.815 176.534
L289.349 176.446
L290.95 176.182
L291.395 176.253
L293.175 176.3
L293.442 176.227
L293.709 176.36
L294.154 176.367
L294.421 176.344
L295.578 176.417
L298.159 176.45
L298.782 177.017
L299.227 176.642
L299.583 175.883
L299.672 175.63
L300.562 169.23
L300.829 164.508
L301.096 149.18
L301.363 141.283
L301.452 138.431
L301.541 143.033
L301.63 142.711
L301.897 147.936
L301.986 148.938
L302.075 147.178
L302.164 147.248
L302.253 146.222
L302.342 146.673
L302.431 146.197
L302.52 146.324
L302.609 146.079
L303.766 123.892
L304.3 107.395
L304.389 106.653
L304.567 103.711
L304.656 104.992
L304.745 104.77
L304.923 105.542
L305.19 118.631
L305.724 142.705
L306.258 152.165
L306.347 152.211
L306.881 161.603
L307.326 175.267
L308.038 190.225
L308.75 199.807
L309.017 201.407
L309.106 201.309
L309.283 201.617
L309.906 198.787
L310.529 189.712
L311.686 174.912
L313.021 163.7
L314 159.437
L314.356 158.547
L314.445 158.626
L314.712 158.511
L314.979 159.092
L315.246 159.36
L315.513 158.649
L315.78 160.528
L316.047 161.992
L316.136 161.91
L316.492 163.022
L316.759 164.004
L316.848 164.227
L317.115 155.418
L317.204 156.73
L317.293 155.303
L317.382 155.657
L317.738 163.61
L317.916 167.114
L318.005 166.366
L318.094 167.157
L318.183 166.949
L318.361 167.297
L318.45 167.509
L318.717 169.911
L318.806 170.027
L318.984 170.766
L319.251 171.147
L319.607 172.676
L320.141 174.333
L320.497 174.937
L320.764 175.018
L321.298 175.392
L322.277 176.126
L322.633 176.226
L324.257 176.564
L324.902 176.558
L325.347 176.565
L326.059 176.683
L326.415 176.653
L328.729 176.673
L329.441 176.732
L329.708 176.569
L329.975 176.643
L331.043 176.545
L331.31 176.526
L332.289 176.611
L333.09 176.57
L334.336 176.499
L334.692 176.535
L336.472 176.542
L336.739 176.523
L337.717 176.609
L338.963 176.693
L339.23 176.537
L339.497 176.617
L343.235 176.627
L343.591 176.51
L343.947 176.521
L350.355 176.808
L350.622 176.631
L352.402 176.79
L352.758 176.688
L353.381 176.741
L354.449 176.722
L354.894 176.615
L355.872 176.587
L356.406 176.748
L356.851 176.99
L357.029 177.075
L358.364 174.818
L358.631 174.324
L358.809 174.103
L359.165 170.472
L359.432 166.981
L359.699 160.229
L359.788 161.171
L359.877 160.12
L359.966 160.366
L360.233 164.256
L360.411 165.069
L360.589 165.698
L360.856 164.602
L360.945 164.428
L361.123 164.768
L361.212 164.971
L361.657 167.647
L362.102 170.087
L362.191 169.544
L362.28 169.653
L362.369 169.362
L362.903 152.162
L363.259 144.382
L363.793 135.024
L364.505 120.463
L364.683 117.268
L364.772 118.787
L364.861 118.304
L364.95 119.064
L365.039 119.003
L365.306 128.163
L366.018 152.659
L366.552 166.216
L366.819 170.067
L366.908 169.868
L367.175 171.099
L367.442 171.907
L368.688 190.666
L369.489 200.387
L369.578 200.451
L369.756 201.08
L370.023 199.813
L370.112 199.614
L370.468 196.715
L370.824 193.385
L371.536 184.932
L372.159 176.323
L372.693 171.16
L373.405 167.152
L374.383 163.265
L374.828 162.075
L375.006 161.929
L375.273 161.676
L375.54 161.482
L376.163 161.124
L376.252 161.05
L376.519 161.997
L377.32 165.773
L377.587 151.208
L377.676 157.251
L377.765 156.042
L377.943 160.222
L378.121 163.538
L378.21 163.619
L378.299 164.208
L378.566 167.861
L379.1 171.107
L379.189 171.119
L379.456 170.801
L379.812 172.736
L380.168 174.22
L380.969 175.755
L381.147 175.958
L381.414 175.674
L381.77 175.241
L382.749 175.797
L383.461 176.278
L384.529 176.336
L387.644 176.559
L388.445 176.615
L388.712 176.628
L389.513 176.714
L389.869 176.676
L390.67 176.732
L391.026 176.662
L391.56 176.618
L394.496 176.879
L394.941 176.872
L396.009 176.691
L396.365 176.709
L399.569 176.678
L399.836 176.678
L400.548 176.737
L401.082 176.615
L401.794 176.581
L402.417 176.673
L404.731 176.787
L408.38 176.747
L409.092 176.749
L409.626 176.682
L410.071 176.707
L410.605 176.653
L411.05 176.644
L411.317 176.706
L412.295 176.758
L412.651 176.681
L413.096 176.667
L413.719 176.716
L414.075 176.8
L414.431 176.763
L415.321 176.766
L417.279 176.757
L417.991 176.755
L421.462 176.848
L423.42 176.691
L424.31 176.599
L424.844 176.676
L426.179 176.762
L426.535 176.713
L427.158 176.731
L427.425 176.789
L428.76 176.851
L429.116 176.781
L429.828 176.789
L438.015 176.835
L438.371 176.618
L438.727 176.675
L439.439 176.675
L439.795 176.663
L440.418 176.663
L440.685 176.666
L441.13 176.713
L441.486 176.524
L441.842 176.602
L442.999 176.725
L444.868 176.774
L445.224 176.676
L445.847 176.733
L447.271 176.726
L447.538 176.719
L448.783 176.813
L454.568 176.732
L455.124 176.789
L456.548 176.673
L456.815 176.673
L457.26 176.659
L457.705 176.623
L463.579 176.846
L464.113 176.819
L464.736 176.791
L468.385 176.653
L468.652 176.52
L468.919 176.599
L472.923 176.672
L473.546 176.605
L474.347 176.655
L475.86 176.658
L477.017 176.748
L477.284 176.582
L477.551 176.653
L478.886 176.751
L480.844 176.757
L481.2 176.664
L481.556 176.81
L481.912 176.853
L483.336 176.825
L484.76 176.752
L485.027 176.669
L485.294 176.711
L485.65 176.627
L485.917 176.758
L486.362 176.761
L488.142 176.767
L488.676 176.636
L489.21 176.7
L490.367 176.765
L490.633 176.596
L490.9 176.666
L491.256 176.59
L491.879 176.571
L492.769 176.691
L493.659 176.692
L493.926 176.621
L494.193 176.761
L494.46 176.751
L494.727 176.856
L495.172 176.831
L495.35 176.739
L495.795 176.709
L497.931 176.708
L500.512 176.775
L500.779 176.605
L501.046 176.672
L502.203 176.75
L505.496 176.806
L506.03 176.662
L506.564 176.718
L507.098 176.66
L507.543 176.691
L508.967 176.765
L509.678 176.62
L513.416 176.698
L513.683 176.695
L514.662 176.758
L515.018 176.71
L515.819 176.751
L517.955 176.772
L518.311 176.675
L518.4 176.744
L518.4 176.744" style="fill:none;stroke:#008000;"/>
   </g>
   <g id="line2d_3">
    <path clip-path="url(#p7ff5b81e1d)" d="
M72 213.732
L75.3596 213.622
L76.6722 213.649
L77.0505 213.671
L77.4955 213.692
L78.0739 213.788
L78.3409 213.644
L78.6301 213.734
L78.9861 213.681
L80.9885 213.774
L81.3445 213.734
L83.7919 213.656
L84.4148 213.624
L85.9278 213.622
L86.2837 213.665
L87.0847 213.618
L89.8435 213.57
L90.1105 213.655
L90.3775 213.532
L90.7335 213.547
L95.1833 213.676
L96.0732 213.672
L96.3402 213.674
L96.6072 213.703
L96.8742 213.701
L98.1201 213.525
L99.01 213.595
L99.277 213.679
L99.544 213.64
L100.167 213.833
L100.434 213.881
L100.968 213.966
L101.235 213.991
L102.659 213.93
L103.727 213.897
L103.994 213.887
L106.13 214.151
L106.575 213.901
L106.753 213.893
L107.02 213.936
L107.554 213.98
L108.444 213.846
L109.422 213.739
L109.956 213.774
L110.846 213.85
L112.27 213.87
L115.118 213.656
L115.385 213.727
L115.652 213.68
L116.097 213.775
L116.364 213.766
L117.61 213.758
L118.411 213.708
L119.212 213.659
L120.191 213.691
L121.971 213.86
L122.505 213.809
L122.95 213.843
L123.751 213.845
L124.107 213.767
L124.374 213.814
L124.641 213.663
L124.908 213.75
L126.955 213.72
L127.4 213.779
L127.844 213.777
L128.2 213.78
L128.467 213.761
L128.734 213.775
L129.09 213.767
L129.446 213.802
L131.582 213.855
L132.205 213.735
L133.006 213.741
L134.074 213.762
L134.786 213.732
L135.32 213.756
L135.676 213.763
L136.21 213.777
L136.566 213.779
L136.833 213.761
L137.189 213.766
L137.456 213.749
L138.168 213.664
L138.524 213.698
L141.372 213.739
L141.639 213.759
L141.995 213.754
L142.707 213.714
L143.152 213.733
L143.419 213.753
L143.775 213.75
L144.398 213.731
L145.021 213.825
L145.377 213.754
L146 213.842
L147.067 213.856
L147.334 213.854
L147.868 213.852
L149.114 213.853
L150.004 213.853
L150.36 213.838
L151.339 213.91
L151.695 213.819
L152.318 213.883
L152.674 213.814
L153.119 213.808
L159.215 213.711
L159.571 213.565
L161.974 213.842
L162.33 213.765
L162.686 213.774
L165.445 213.845
L165.979 213.78
L166.691 213.744
L167.047 213.758
L169.717 213.647
L169.895 213.546
L170.696 213.188
L171.141 212.133
L171.497 208.524
L171.675 205.707
L171.853 202.18
L172.12 196.628
L172.654 183.87
L174.167 145.645
L174.256 146.272
L174.344 145.644
L174.433 145.83
L175.056 160.959
L176.058 221.134
L176.503 255.247
L176.881 267.579
L177.148 270.842
L177.237 270.696
L177.326 271.261
L177.682 267.169
L178.216 250.879
L178.75 237.972
L179.373 229.935
L180.085 224.258
L180.975 219.123
L181.153 218.763
L181.62 218.615
L182.154 216.828
L183.489 210.173
L185.18 196.869
L185.536 195.013
L185.981 193.919
L187.049 195.728
L187.494 196.106
L187.939 197.177
L189.095 203.49
L189.985 205.901
L190.252 214.522
L190.341 209.841
L190.43 210.199
L190.519 207.521
L190.608 208.321
L190.697 206.967
L190.786 207.038
L191.053 205.804
L191.142 205.987
L191.231 205.784
L191.32 205.833
L191.587 207.169
L192.21 209.04
L192.477 209.68
L192.922 211.554
L193.456 213.384
L194.079 214.806
L194.435 215.187
L194.613 215.16
L194.791 215.125
L195.236 214.785
L196.66 214.066
L196.927 213.996
L197.372 213.91
L197.728 213.979
L198.084 214.021
L199.33 213.975
L199.686 213.955
L199.953 213.929
L200.398 213.903
L201.199 213.893
L202.178 213.877
L202.534 213.856
L203.958 213.968
L204.759 213.86
L205.026 213.855
L205.827 213.906
L206.183 213.91
L208.763 213.777
L209.475 213.391
L209.564 213.334
L210.098 211.718
L210.454 208.56
L210.988 204.103
L211.522 189.823
L211.878 172.519
L212.323 157.715
L213.302 135.818
L213.391 136.649
L213.48 136.07
L213.569 136.391
L214.103 158.001
L214.904 228.523
L215.26 264.336
L215.527 276.656
L215.616 281.057
L215.705 280.057
L215.883 282.474
L216.417 267.85
L216.862 247.846
L217.307 234.128
L217.396 233.8
L217.663 231.1
L218.197 228.185
L218.286 228.121
L218.464 227.754
L218.731 227.655
L219.087 227.512
L220.778 221.586
L222.113 214.498
L222.558 212.148
L223.092 207.299
L223.804 201.57
L224.516 197.707
L225.406 195.849
L226.028 195.543
L226.384 195.872
L226.829 196.216
L227.096 196.817
L227.363 197.409
L227.63 197.866
L227.986 198.358
L228.342 199.129
L228.52 199.059
L228.609 199.006
L228.876 199.511
L229.143 191.913
L229.232 192.016
L229.499 189.223
L229.588 189.804
L229.677 189.469
L229.766 189.715
L230.033 195.336
L231.19 207.661
L231.813 210.665
L232.169 211.514
L232.347 211.732
L232.792 211.941
L232.97 212.173
L233.504 212.846
L234.127 213.379
L234.75 213.606
L235.996 213.842
L236.352 213.767
L236.975 213.939
L237.242 213.841
L237.865 214.008
L238.132 213.902
L238.488 213.929
L240.268 213.962
L240.802 213.86
L241.247 213.859
L241.87 213.958
L242.137 214.053
L242.582 214.018
L246.052 213.911
L246.408 213.881
L246.675 213.844
L246.942 213.843
L247.209 213.815
L247.565 213.807
L248.633 213.9
L250.146 214.079
L251.036 214.175
L252.193 214.015
L252.905 214.102
L253.973 214.062
L254.329 213.935
L254.685 213.905
L255.842 213.805
L256.109 213.397
L256.465 212.955
L256.732 211.974
L256.821 211.754
L257.177 209.925
L257.711 207.981
L257.8 207.704
L258.067 205.672
L258.156 205.209
L258.423 200.67
L258.512 199.675
L259.046 184.716
L259.402 178.108
L259.58 173.606
L259.847 167.721
L260.203 153.632
L260.559 144.775
L260.826 141.299
L261.004 144.015
L261.36 151.775
L261.716 166.849
L261.805 169.946
L263.139 269.259
L263.228 270.366
L263.495 278.39
L263.584 275.971
L263.673 276.837
L263.762 275.656
L263.851 275.819
L264.563 246.567
L265.097 230.087
L265.364 226.352
L265.809 223.881
L265.898 224.297
L265.987 224.164
L266.165 224.354
L266.477 225.719
L266.744 229.073
L266.833 229.351
L267.1 230.717
L267.189 230.935
L268.168 225.133
L268.969 218.766
L269.681 214.186
L270.215 211.582
L271.283 202.286
L271.906 197.955
L272.261 196.469
L273.418 192.457
L273.507 192.487
L273.685 192.358
L274.041 192.884
L275.109 195.134
L275.821 195.937
L276.444 197.103
L276.711 201.014
L276.8 199.088
L276.889 199.305
L277.067 198.03
L277.334 201.639
L277.423 201.166
L277.69 202.591
L277.779 202.805
L278.224 205.105
L278.58 206.924
L279.648 212.318
L280.093 213.541
L280.716 214.398
L280.983 214.522
L281.339 214.504
L281.606 214.378
L281.784 214.276
L282.051 213.79
L282.14 213.862
L282.407 213.767
L283.297 213.834
L283.742 214.047
L284.009 214.001
L284.721 214.007
L284.988 213.971
L285.7 214.142
L285.967 214.231
L287.035 214.344
L287.747 214.309
L288.103 214.376
L288.548 214.25
L289.082 214.265
L289.527 214.304
L289.794 214.142
L290.061 214.307
L290.328 214.212
L291.573 214.071
L292.374 213.974
L292.997 214.017
L294.154 214.09
L294.421 214.182
L295.489 214.296
L296.29 214.252
L298.248 213.847
L298.426 213.761
L298.693 213.205
L298.782 213.084
L299.316 211.308
L299.405 211.054
L299.85 208.691
L299.939 208.255
L300.206 205.906
L300.473 199.216
L300.562 197.726
L300.829 185.324
L300.918 184.517
L301.363 173.428
L301.452 171.727
L302.075 148.951
L302.342 143.092
L302.609 139.441
L302.698 140.491
L302.787 140.09
L302.876 140.595
L303.41 149.414
L304.033 175.725
L304.745 251.799
L305.101 276.986
L305.368 284.175
L305.457 285.326
L305.635 281.867
L305.724 279.888
L305.991 266.214
L306.347 250.032
L306.881 232.915
L307.148 229.789
L307.237 228.643
L307.326 229.516
L307.415 229.095
L307.949 231.848
L308.661 236.43
L308.75 235.972
L308.839 236.061
L309.017 235.795
L309.372 232.845
L309.906 227.967
L310.44 223.07
L310.974 219.205
L311.419 216.089
L311.864 212.462
L312.398 207.309
L313.466 198.752
L314.623 193.564
L315.691 189.899
L315.78 189.819
L316.047 190.579
L316.136 190.616
L316.848 191.98
L316.937 191.93
L317.115 192.067
L317.382 188.768
L317.471 188.85
L317.649 188.05
L317.916 187.522
L318.183 191.732
L318.628 197.864
L319.785 208.204
L320.141 209.869
L320.675 211.166
L321.387 212.153
L322.722 213.409
L322.989 213.484
L323.256 213.522
L323.523 213.579
L324.546 213.881
L324.902 213.958
L325.525 214.079
L326.237 214.028
L326.504 213.992
L326.771 213.937
L326.949 213.976
L330.153 213.9
L330.865 213.906
L331.933 213.885
L332.111 213.931
L333.357 213.911
L333.624 213.899
L333.891 213.86
L334.158 213.856
L335.048 213.916
L338.251 213.941
L338.429 213.98
L338.874 214.085
L339.23 214.07
L339.764 213.951
L340.209 213.945
L343.591 214.018
L344.214 213.953
L344.837 214.091
L345.549 214.127
L346.083 213.989
L346.35 214.029
L346.617 214.046
L347.151 214.063
L348.753 214.144
L350.088 213.988
L350.711 214.072
L351.245 214.132
L352.313 213.988
L352.58 213.962
L353.114 213.924
L353.826 213.92
L354.271 213.846
L354.894 213.774
L355.694 213.821
L356.762 213.675
L357.118 213.027
L357.474 212.226
L357.741 211.737
L358.186 211.278
L358.453 211.7
L358.72 211.996
L358.987 212.522
L359.254 213.324
L359.432 213.838
L359.61 213.061
L359.699 212.621
L360.589 191.768
L361.39 179.131
L361.835 171.742
L362.28 163.702
L362.369 162.363
L362.458 162.543
L362.636 161.685
L362.903 163.491
L362.992 163.81
L363.348 167.552
L363.526 169.28
L364.149 183.816
L365.484 259.142
L365.84 265.778
L365.929 266.406
L366.018 265.488
L366.107 265.587
L366.196 265.07
L366.463 260.22
L366.552 259.151
L366.997 241.991
L367.442 228.745
L367.976 221.386
L368.243 219.76
L368.332 219.489
L368.421 219.737
L368.51 219.65
L368.599 219.772
L369.222 223.869
L369.667 225.309
L369.756 225.406
L369.934 225.21
L370.112 225.058
L371.269 218.847
L371.803 216.005
L372.07 215.298
L372.515 213.486
L372.693 212.822
L373.227 209.023
L375.184 196.023
L375.985 192.398
L376.519 191.051
L376.608 191.435
L376.697 191.402
L376.786 191.621
L376.875 191.532
L377.587 192.433
L378.121 177.901
L378.21 179.441
L378.299 178.693
L378.566 185.261
L379.189 197.232
L380.168 207.958
L380.88 211.4
L380.969 211.457
L381.147 211.793
L381.325 211.668
L381.414 211.588
L381.681 211.856
L381.77 211.886
L382.126 212.342
L383.105 213.344
L383.194 213.334
L383.461 213.561
L384.173 213.637
L384.885 213.831
L385.597 214.067
L386.131 214.03
L389.424 213.948
L391.115 213.881
L391.471 213.859
L392.717 213.929
L394.585 213.916
L394.941 213.868
L395.742 213.91
L399.213 213.968
L404.642 213.894
L405.176 213.822
L406.956 213.898
L407.49 213.834
L408.202 213.753
L408.736 213.818
L409.893 213.85
L410.16 213.849
L410.605 213.844
L412.117 213.788
L412.562 213.754
L413.452 213.732
L413.719 213.791
L413.986 213.732
L414.431 213.812
L415.321 213.78
L415.855 213.745
L418.792 213.765
L419.593 213.665
L420.038 213.721
L422.352 213.929
L426.179 213.948
L426.535 213.893
L428.137 213.843
L429.65 213.893
L429.917 213.73
L430.183 213.804
L431.518 213.896
L431.785 213.939
L433.12 213.898
L434.01 213.891
L434.722 213.9
L435.345 213.84
L436.68 213.707
L437.214 213.753
L438.905 213.835
L440.774 213.939
L441.486 213.847
L441.931 213.82
L442.91 213.902
L445.224 213.961
L445.58 213.902
L448.517 213.686
L448.961 213.78
L449.94 213.789
L450.741 213.85
L451.453 213.806
L451.898 213.774
L455.747 213.781
L456.548 213.808
L457.883 213.861
L458.239 213.827
L459.129 213.894
L461.888 213.963
L462.244 213.904
L463.668 213.84
L463.935 213.811
L464.38 213.777
L467.495 213.762
L468.118 213.773
L469.72 213.821
L470.61 213.687
L471.589 213.662
L472.122 213.772
L472.834 213.796
L473.368 213.71
L473.724 213.778
L474.258 213.697
L474.792 213.795
L475.86 213.849
L477.551 213.795
L479.687 213.866
L479.954 213.862
L480.577 213.907
L480.933 213.862
L483.247 213.783
L484.226 213.824
L484.493 213.758
L484.938 213.832
L486.985 213.909
L487.519 213.784
L487.875 213.834
L488.231 213.807
L491.879 213.81
L492.235 213.759
L493.748 213.721
L497.041 213.841
L497.664 213.729
L498.198 213.817
L498.554 213.793
L499.978 213.864
L500.779 213.825
L501.58 213.808
L502.292 213.82
L502.737 213.731
L503.004 213.789
L503.271 213.73
L503.716 213.811
L504.161 213.727
L505.585 213.678
L506.92 213.697
L507.721 213.689
L507.988 213.756
L508.255 213.703
L508.7 213.792
L509.678 213.809
L509.945 213.748
L510.39 213.824
L511.369 213.796
L513.416 213.662
L513.772 213.724
L515.374 213.839
L516.086 213.717
L516.62 213.808
L517.599 213.837
L518.311 213.716
L518.4 213.749
L518.4 213.749" style="fill:none;stroke:#0000ff;"/>
   </g>
   <g id="matplotlib.axis_1">
    <g id="xtick_1">
     <g id="line2d_4">
      <defs>
       <path d="
M0 0
L0 -4" id="mcb557df647" style="stroke:#000000;stroke-linecap:butt;stroke-width:0.5;"/>
      </defs>
      <g>
       <use style="stroke:#000000;stroke-linecap:butt;stroke-width:0.5;" x="72.0" xlink:href="#mcb557df647" y="388.8"/>
      </g>
     </g>
     <g id="line2d_5">
      <defs>
       <path d="
M0 0
L0 4" id="mdad270ee8e" style="stroke:#000000;stroke-linecap:butt;stroke-width:0.5;"/>
      </defs>
      <g>
       <use style="stroke:#000000;stroke-linecap:butt;stroke-width:0.5;" x="72.0" xlink:href="#mdad270ee8e" y="43.2"/>
      </g>
     </g>
     <g id="text_1">
      <!-- 0 -->
      <defs>
       <path d="
M31.7812 66.4062
Q24.1719 66.4062 20.3281 58.9062
Q16.5 51.4219 16.5 36.375
Q16.5 21.3906 20.3281 13.8906
Q24.1719 6.39062 31.7812 6.39062
Q39.4531 6.39062 43.2812 13.8906
Q47.125 21.3906 47.125 36.375
Q47.125 51.4219 43.2812 58.9062
Q39.4531 66.4062 31.7812 66.4062
M31.7812 74.2188
Q44.0469 74.2188 50.5156 64.5156
Q56.9844 54.8281 56.9844 36.375
Q56.9844 17.9688 50.5156 8.26562
Q44.0469 -1.42188 31.7812 -1.42188
Q19.5312 -1.42188 13.0625 8.26562
Q6.59375 17.9688 6.59375 36.375
Q6.59375 54.8281 13.0625 64.5156
Q19.5312 74.2188 31.7812 74.2188" id="BitstreamVeraSans-Roman-30"/>
      </defs>
      <g transform="translate(68.9765625 401.70625)scale(0.12 -0.12)">
       <use xlink:href="#BitstreamVeraSans-Roman-30"/>
      </g>
     </g>
    </g>
    <g id="xtick_2">
     <g id="line2d_6">
      <g>
       <use style="stroke:#000000;stroke-linecap:butt;stroke-width:0.5;" x="183.244019139" xlink:href="#mcb557df647" y="388.8"/>
      </g>
     </g>
     <g id="line2d_7">
      <g>
       <use style="stroke:#000000;stroke-linecap:butt;stroke-width:0.5;" x="183.244019139" xlink:href="#mdad270ee8e" y="43.2"/>
      </g>
     </g>
     <g id="text_2">
      <!-- 5000 -->
      <defs>
       <path d="
M10.7969 72.9062
L49.5156 72.9062
L49.5156 64.5938
L19.8281 64.5938
L19.8281 46.7344
Q21.9688 47.4688 24.1094 47.8281
Q26.2656 48.1875 28.4219 48.1875
Q40.625 48.1875 47.75 41.5
Q54.8906 34.8125 54.8906 23.3906
Q54.8906 11.625 47.5625 5.09375
Q40.2344 -1.42188 26.9062 -1.42188
Q22.3125 -1.42188 17.5469 -0.640625
Q12.7969 0.140625 7.71875 1.70312
L7.71875 11.625
Q12.1094 9.23438 16.7969 8.0625
Q21.4844 6.89062 26.7031 6.89062
Q35.1562 6.89062 40.0781 11.3281
Q45.0156 15.7656 45.0156 23.3906
Q45.0156 31 40.0781 35.4375
Q35.1562 39.8906 26.7031 39.8906
Q22.75 39.8906 18.8125 39.0156
Q14.8906 38.1406 10.7969 36.2812
z
" id="BitstreamVeraSans-Roman-35"/>
      </defs>
      <g transform="translate(168.835581639 401.70625)scale(0.12 -0.12)">
       <use xlink:href="#BitstreamVeraSans-Roman-35"/>
       <use x="63.623046875" xlink:href="#BitstreamVeraSans-Roman-30"/>
       <use x="127.24609375" xlink:href="#BitstreamVeraSans-Roman-30"/>
       <use x="190.869140625" xlink:href="#BitstreamVeraSans-Roman-30"/>
      </g>
     </g>
    </g>
    <g id="xtick_3">
     <g id="line2d_8">
      <g>
       <use style="stroke:#000000;stroke-linecap:butt;stroke-width:0.5;" x="294.488038278" xlink:href="#mcb557df647" y="388.8"/>
      </g>
     </g>
     <g id="line2d_9">
      <g>
       <use style="stroke:#000000;stroke-linecap:butt;stroke-width:0.5;" x="294.488038278" xlink:href="#mdad270ee8e" y="43.2"/>
      </g>
     </g>
     <g id="text_3">
      <!-- 10000 -->
      <defs>
       <path d="
M12.4062 8.29688
L28.5156 8.29688
L28.5156 63.9219
L10.9844 60.4062
L10.9844 69.3906
L28.4219 72.9062
L38.2812 72.9062
L38.2812 8.29688
L54.3906 8.29688
L54.3906 0
L12.4062 0
z
" id="BitstreamVeraSans-Roman-31"/>
      </defs>
      <g transform="translate(276.458038278 401.70625)scale(0.12 -0.12)">
       <use xlink:href="#BitstreamVeraSans-Roman-31"/>
       <use x="63.623046875" xlink:href="#BitstreamVeraSans-Roman-30"/>
       <use x="127.24609375" xlink:href="#BitstreamVeraSans-Roman-30"/>
       <use x="190.869140625" xlink:href="#BitstreamVeraSans-Roman-30"/>
       <use x="254.4921875" xlink:href="#BitstreamVeraSans-Roman-30"/>
      </g>
     </g>
    </g>
    <g id="xtick_4">
     <g id="line2d_10">
      <g>
       <use style="stroke:#000000;stroke-linecap:butt;stroke-width:0.5;" x="405.732057416" xlink:href="#mcb557df647" y="388.8"/>
      </g>
     </g>
     <g id="line2d_11">
      <g>
       <use style="stroke:#000000;stroke-linecap:butt;stroke-width:0.5;" x="405.732057416" xlink:href="#mdad270ee8e" y="43.2"/>
      </g>
     </g>
     <g id="text_4">
      <!-- 15000 -->
      <g transform="translate(387.702057416 401.70625)scale(0.12 -0.12)">
       <use xlink:href="#BitstreamVeraSans-Roman-31"/>
       <use x="63.623046875" xlink:href="#BitstreamVeraSans-Roman-35"/>
       <use x="127.24609375" xlink:href="#BitstreamVeraSans-Roman-30"/>
       <use x="190.869140625" xlink:href="#BitstreamVeraSans-Roman-30"/>
       <use x="254.4921875" xlink:href="#BitstreamVeraSans-Roman-30"/>
      </g>
     </g>
    </g>
    <g id="xtick_5">
     <g id="line2d_12">
      <g>
       <use style="stroke:#000000;stroke-linecap:butt;stroke-width:0.5;" x="516.976076555" xlink:href="#mcb557df647" y="388.8"/>
      </g>
     </g>
     <g id="line2d_13">
      <g>
       <use style="stroke:#000000;stroke-linecap:butt;stroke-width:0.5;" x="516.976076555" xlink:href="#mdad270ee8e" y="43.2"/>
      </g>
     </g>
     <g id="text_5">
      <!-- 20000 -->
      <defs>
       <path d="
M19.1875 8.29688
L53.6094 8.29688
L53.6094 0
L7.32812 0
L7.32812 8.29688
Q12.9375 14.1094 22.625 23.8906
Q32.3281 33.6875 34.8125 36.5312
Q39.5469 41.8438 41.4219 45.5312
Q43.3125 49.2188 43.3125 52.7812
Q43.3125 58.5938 39.2344 62.25
Q35.1562 65.9219 28.6094 65.9219
Q23.9688 65.9219 18.8125 64.3125
Q13.6719 62.7031 7.8125 59.4219
L7.8125 69.3906
Q13.7656 71.7812 18.9375 73
Q24.125 74.2188 28.4219 74.2188
Q39.75 74.2188 46.4844 68.5469
Q53.2188 62.8906 53.2188 53.4219
Q53.2188 48.9219 51.5312 44.8906
Q49.8594 40.875 45.4062 35.4062
Q44.1875 33.9844 37.6406 27.2188
Q31.1094 20.4531 19.1875 8.29688" id="BitstreamVeraSans-Roman-32"/>
      </defs>
      <g transform="translate(498.726701555 401.70625)scale(0.12 -0.12)">
       <use xlink:href="#BitstreamVeraSans-Roman-32"/>
       <use x="63.623046875" xlink:href="#BitstreamVeraSans-Roman-30"/>
       <use x="127.24609375" xlink:href="#BitstreamVeraSans-Roman-30"/>
       <use x="190.869140625" xlink:href="#BitstreamVeraSans-Roman-30"/>
       <use x="254.4921875" xlink:href="#BitstreamVeraSans-Roman-30"/>
      </g>
     </g>
    </g>
    <g id="text_6">
     <!-- time -->
     <defs>
      <path d="
M56.2031 29.5938
L56.2031 25.2031
L14.8906 25.2031
Q15.4844 15.9219 20.4844 11.0625
Q25.4844 6.20312 34.4219 6.20312
Q39.5938 6.20312 44.4531 7.46875
Q49.3125 8.73438 54.1094 11.2812
L54.1094 2.78125
Q49.2656 0.734375 44.1875 -0.34375
Q39.1094 -1.42188 33.8906 -1.42188
Q20.7969 -1.42188 13.1562 6.1875
Q5.51562 13.8125 5.51562 26.8125
Q5.51562 40.2344 12.7656 48.1094
Q20.0156 56 32.3281 56
Q43.3594 56 49.7812 48.8906
Q56.2031 41.7969 56.2031 29.5938
M47.2188 32.2344
Q47.125 39.5938 43.0938 43.9844
Q39.0625 48.3906 32.4219 48.3906
Q24.9062 48.3906 20.3906 44.1406
Q15.875 39.8906 15.1875 32.1719
z
" id="BitstreamVeraSans-Roman-65"/>
      <path d="
M52 44.1875
Q55.375 50.25 60.0625 53.125
Q64.75 56 71.0938 56
Q79.6406 56 84.2812 50.0156
Q88.9219 44.0469 88.9219 33.0156
L88.9219 0
L79.8906 0
L79.8906 32.7188
Q79.8906 40.5781 77.0938 44.375
Q74.3125 48.1875 68.6094 48.1875
Q61.625 48.1875 57.5625 43.5469
Q53.5156 38.9219 53.5156 30.9062
L53.5156 0
L44.4844 0
L44.4844 32.7188
Q44.4844 40.625 41.7031 44.4062
Q38.9219 48.1875 33.1094 48.1875
Q26.2188 48.1875 22.1562 43.5312
Q18.1094 38.875 18.1094 30.9062
L18.1094 0
L9.07812 0
L9.07812 54.6875
L18.1094 54.6875
L18.1094 46.1875
Q21.1875 51.2188 25.4844 53.6094
Q29.7812 56 35.6875 56
Q41.6562 56 45.8281 52.9688
Q50 49.9531 52 44.1875" id="BitstreamVeraSans-Roman-6d"/>
      <path d="
M18.3125 70.2188
L18.3125 54.6875
L36.8125 54.6875
L36.8125 47.7031
L18.3125 47.7031
L18.3125 18.0156
Q18.3125 11.3281 20.1406 9.42188
Q21.9688 7.51562 27.5938 7.51562
L36.8125 7.51562
L36.8125 0
L27.5938 0
Q17.1875 0 13.2344 3.875
Q9.28125 7.76562 9.28125 18.0156
L9.28125 47.7031
L2.6875 47.7031
L2.6875 54.6875
L9.28125 54.6875
L9.28125 70.2188
z
" id="BitstreamVeraSans-Roman-74"/>
      <path d="
M9.42188 54.6875
L18.4062 54.6875
L18.4062 0
L9.42188 0
z

M9.42188 75.9844
L18.4062 75.9844
L18.4062 64.5938
L9.42188 64.5938
z
" id="BitstreamVeraSans-Roman-69"/>
     </defs>
     <g transform="translate(282.125625 415.995)scale(0.12 -0.12)">
      <use xlink:href="#BitstreamVeraSans-Roman-74"/>
      <use x="39.208984375" xlink:href="#BitstreamVeraSans-Roman-69"/>
      <use x="66.9921875" xlink:href="#BitstreamVeraSans-Roman-6d"/>
      <use x="164.404296875" xlink:href="#BitstreamVeraSans-Roman-65"/>
     </g>
    </g>
   </g>
   <g id="matplotlib.axis_2">
    <g id="ytick_1">
     <g id="line2d_14">
      <defs>
       <path d="
M0 0
L4 0" id="mc8fcea1516" style="stroke:#000000;stroke-linecap:butt;stroke-width:0.5;"/>
      </defs>
      <g>
       <use style="stroke:#000000;stroke-linecap:butt;stroke-width:0.5;" x="72.0" xlink:href="#mc8fcea1516" y="388.8"/>
      </g>
     </g>
     <g id="line2d_15">
      <defs>
       <path d="
M0 0
L-4 0" id="m0d5b0a6425" style="stroke:#000000;stroke-linecap:butt;stroke-width:0.5;"/>
      </defs>
      <g>
       <use style="stroke:#000000;stroke-linecap:butt;stroke-width:0.5;" x="518.4" xlink:href="#m0d5b0a6425" y="388.8"/>
      </g>
     </g>
     <g id="text_7">
      <!-- 0.0 -->
      <defs>
       <path d="
M10.6875 12.4062
L21 12.4062
L21 0
L10.6875 0
z
" id="BitstreamVeraSans-Roman-2e"/>
      </defs>
      <g transform="translate(50.504375 393.1678125)scale(0.12 -0.12)">
       <use xlink:href="#BitstreamVeraSans-Roman-30"/>
       <use x="63.623046875" xlink:href="#BitstreamVeraSans-Roman-2e"/>
       <use x="95.41015625" xlink:href="#BitstreamVeraSans-Roman-30"/>
      </g>
     </g>
    </g>
    <g id="ytick_2">
     <g id="line2d_16">
      <g>
       <use style="stroke:#000000;stroke-linecap:butt;stroke-width:0.5;" x="72.0" xlink:href="#mc8fcea1516" y="345.6"/>
      </g>
     </g>
     <g id="line2d_17">
      <g>
       <use style="stroke:#000000;stroke-linecap:butt;stroke-width:0.5;" x="518.4" xlink:href="#m0d5b0a6425" y="345.6"/>
      </g>
     </g>
     <g id="text_8">
      <!-- 0.1 -->
      <g transform="translate(50.815625 349.9678125)scale(0.12 -0.12)">
       <use xlink:href="#BitstreamVeraSans-Roman-30"/>
       <use x="63.623046875" xlink:href="#BitstreamVeraSans-Roman-2e"/>
       <use x="95.41015625" xlink:href="#BitstreamVeraSans-Roman-31"/>
      </g>
     </g>
    </g>
    <g id="ytick_3">
     <g id="line2d_18">
      <g>
       <use style="stroke:#000000;stroke-linecap:butt;stroke-width:0.5;" x="72.0" xlink:href="#mc8fcea1516" y="302.4"/>
      </g>
     </g>
     <g id="line2d_19">
      <g>
       <use style="stroke:#000000;stroke-linecap:butt;stroke-width:0.5;" x="518.4" xlink:href="#m0d5b0a6425" y="302.4"/>
      </g>
     </g>
     <g id="text_9">
      <!-- 0.2 -->
      <g transform="translate(50.909375 306.7678125)scale(0.12 -0.12)">
       <use xlink:href="#BitstreamVeraSans-Roman-30"/>
       <use x="63.623046875" xlink:href="#BitstreamVeraSans-Roman-2e"/>
       <use x="95.41015625" xlink:href="#BitstreamVeraSans-Roman-32"/>
      </g>
     </g>
    </g>
    <g id="ytick_4">
     <g id="line2d_20">
      <g>
       <use style="stroke:#000000;stroke-linecap:butt;stroke-width:0.5;" x="72.0" xlink:href="#mc8fcea1516" y="259.2"/>
      </g>
     </g>
     <g id="line2d_21">
      <g>
       <use style="stroke:#000000;stroke-linecap:butt;stroke-width:0.5;" x="518.4" xlink:href="#m0d5b0a6425" y="259.2"/>
      </g>
     </g>
     <g id="text_10">
      <!-- 0.3 -->
      <defs>
       <path d="
M40.5781 39.3125
Q47.6562 37.7969 51.625 33
Q55.6094 28.2188 55.6094 21.1875
Q55.6094 10.4062 48.1875 4.48438
Q40.7656 -1.42188 27.0938 -1.42188
Q22.5156 -1.42188 17.6562 -0.515625
Q12.7969 0.390625 7.625 2.20312
L7.625 11.7188
Q11.7188 9.32812 16.5938 8.10938
Q21.4844 6.89062 26.8125 6.89062
Q36.0781 6.89062 40.9375 10.5469
Q45.7969 14.2031 45.7969 21.1875
Q45.7969 27.6406 41.2812 31.2656
Q36.7656 34.9062 28.7188 34.9062
L20.2188 34.9062
L20.2188 43.0156
L29.1094 43.0156
Q36.375 43.0156 40.2344 45.9219
Q44.0938 48.8281 44.0938 54.2969
Q44.0938 59.9062 40.1094 62.9062
Q36.1406 65.9219 28.7188 65.9219
Q24.6562 65.9219 20.0156 65.0312
Q15.375 64.1562 9.8125 62.3125
L9.8125 71.0938
Q15.4375 72.6562 20.3438 73.4375
Q25.25 74.2188 29.5938 74.2188
Q40.8281 74.2188 47.3594 69.1094
Q53.9062 64.0156 53.9062 55.3281
Q53.9062 49.2656 50.4375 45.0938
Q46.9688 40.9219 40.5781 39.3125" id="BitstreamVeraSans-Roman-33"/>
      </defs>
      <g transform="translate(50.669375 263.5678125)scale(0.12 -0.12)">
       <use xlink:href="#BitstreamVeraSans-Roman-30"/>
       <use x="63.623046875" xlink:href="#BitstreamVeraSans-Roman-2e"/>
       <use x="95.41015625" xlink:href="#BitstreamVeraSans-Roman-33"/>
      </g>
     </g>
    </g>
    <g id="ytick_5">
     <g id="line2d_22">
      <g>
       <use style="stroke:#000000;stroke-linecap:butt;stroke-width:0.5;" x="72.0" xlink:href="#mc8fcea1516" y="216.0"/>
      </g>
     </g>
     <g id="line2d_23">
      <g>
       <use style="stroke:#000000;stroke-linecap:butt;stroke-width:0.5;" x="518.4" xlink:href="#m0d5b0a6425" y="216.0"/>
      </g>
     </g>
     <g id="text_11">
      <!-- 0.4 -->
      <defs>
       <path d="
M37.7969 64.3125
L12.8906 25.3906
L37.7969 25.3906
z

M35.2031 72.9062
L47.6094 72.9062
L47.6094 25.3906
L58.0156 25.3906
L58.0156 17.1875
L47.6094 17.1875
L47.6094 0
L37.7969 0
L37.7969 17.1875
L4.89062 17.1875
L4.89062 26.7031
z
" id="BitstreamVeraSans-Roman-34"/>
      </defs>
      <g transform="translate(50.380625 220.3678125)scale(0.12 -0.12)">
       <use xlink:href="#BitstreamVeraSans-Roman-30"/>
       <use x="63.623046875" xlink:href="#BitstreamVeraSans-Roman-2e"/>
       <use x="95.41015625" xlink:href="#BitstreamVeraSans-Roman-34"/>
      </g>
     </g>
    </g>
    <g id="ytick_6">
     <g id="line2d_24">
      <g>
       <use style="stroke:#000000;stroke-linecap:butt;stroke-width:0.5;" x="72.0" xlink:href="#mc8fcea1516" y="172.8"/>
      </g>
     </g>
     <g id="line2d_25">
      <g>
       <use style="stroke:#000000;stroke-linecap:butt;stroke-width:0.5;" x="518.4" xlink:href="#m0d5b0a6425" y="172.8"/>
      </g>
     </g>
     <g id="text_12">
      <!-- 0.5 -->
      <g transform="translate(50.755625 177.1678125)scale(0.12 -0.12)">
       <use xlink:href="#BitstreamVeraSans-Roman-30"/>
       <use x="63.623046875" xlink:href="#BitstreamVeraSans-Roman-2e"/>
       <use x="95.41015625" xlink:href="#BitstreamVeraSans-Roman-35"/>
      </g>
     </g>
    </g>
    <g id="ytick_7">
     <g id="line2d_26">
      <g>
       <use style="stroke:#000000;stroke-linecap:butt;stroke-width:0.5;" x="72.0" xlink:href="#mc8fcea1516" y="129.6"/>
      </g>
     </g>
     <g id="line2d_27">
      <g>
       <use style="stroke:#000000;stroke-linecap:butt;stroke-width:0.5;" x="518.4" xlink:href="#m0d5b0a6425" y="129.6"/>
      </g>
     </g>
     <g id="text_13">
      <!-- 0.6 -->
      <defs>
       <path d="
M33.0156 40.375
Q26.375 40.375 22.4844 35.8281
Q18.6094 31.2969 18.6094 23.3906
Q18.6094 15.5312 22.4844 10.9531
Q26.375 6.39062 33.0156 6.39062
Q39.6562 6.39062 43.5312 10.9531
Q47.4062 15.5312 47.4062 23.3906
Q47.4062 31.2969 43.5312 35.8281
Q39.6562 40.375 33.0156 40.375
M52.5938 71.2969
L52.5938 62.3125
Q48.875 64.0625 45.0938 64.9844
Q41.3125 65.9219 37.5938 65.9219
Q27.8281 65.9219 22.6719 59.3281
Q17.5312 52.7344 16.7969 39.4062
Q19.6719 43.6562 24.0156 45.9219
Q28.375 48.1875 33.5938 48.1875
Q44.5781 48.1875 50.9531 41.5156
Q57.3281 34.8594 57.3281 23.3906
Q57.3281 12.1562 50.6875 5.35938
Q44.0469 -1.42188 33.0156 -1.42188
Q20.3594 -1.42188 13.6719 8.26562
Q6.98438 17.9688 6.98438 36.375
Q6.98438 53.6562 15.1875 63.9375
Q23.3906 74.2188 37.2031 74.2188
Q40.9219 74.2188 44.7031 73.4844
Q48.4844 72.75 52.5938 71.2969" id="BitstreamVeraSans-Roman-36"/>
      </defs>
      <g transform="translate(50.463125 133.9678125)scale(0.12 -0.12)">
       <use xlink:href="#BitstreamVeraSans-Roman-30"/>
       <use x="63.623046875" xlink:href="#BitstreamVeraSans-Roman-2e"/>
       <use x="95.41015625" xlink:href="#BitstreamVeraSans-Roman-36"/>
      </g>
     </g>
    </g>
    <g id="ytick_8">
     <g id="line2d_28">
      <g>
       <use style="stroke:#000000;stroke-linecap:butt;stroke-width:0.5;" x="72.0" xlink:href="#mc8fcea1516" y="86.4"/>
      </g>
     </g>
     <g id="line2d_29">
      <g>
       <use style="stroke:#000000;stroke-linecap:butt;stroke-width:0.5;" x="518.4" xlink:href="#m0d5b0a6425" y="86.4"/>
      </g>
     </g>
     <g id="text_14">
      <!-- 0.7 -->
      <defs>
       <path d="
M8.20312 72.9062
L55.0781 72.9062
L55.0781 68.7031
L28.6094 0
L18.3125 0
L43.2188 64.5938
L8.20312 64.5938
z
" id="BitstreamVeraSans-Roman-37"/>
      </defs>
      <g transform="translate(50.733125 90.7678125)scale(0.12 -0.12)">
       <use xlink:href="#BitstreamVeraSans-Roman-30"/>
       <use x="63.623046875" xlink:href="#BitstreamVeraSans-Roman-2e"/>
       <use x="95.41015625" xlink:href="#BitstreamVeraSans-Roman-37"/>
      </g>
     </g>
    </g>
    <g id="ytick_9">
     <g id="line2d_30">
      <g>
       <use style="stroke:#000000;stroke-linecap:butt;stroke-width:0.5;" x="72.0" xlink:href="#mc8fcea1516" y="43.2"/>
      </g>
     </g>
     <g id="line2d_31">
      <g>
       <use style="stroke:#000000;stroke-linecap:butt;stroke-width:0.5;" x="518.4" xlink:href="#m0d5b0a6425" y="43.2"/>
      </g>
     </g>
     <g id="text_15">
      <!-- 0.8 -->
      <defs>
       <path d="
M31.7812 34.625
Q24.75 34.625 20.7188 30.8594
Q16.7031 27.0938 16.7031 20.5156
Q16.7031 13.9219 20.7188 10.1562
Q24.75 6.39062 31.7812 6.39062
Q38.8125 6.39062 42.8594 10.1719
Q46.9219 13.9688 46.9219 20.5156
Q46.9219 27.0938 42.8906 30.8594
Q38.875 34.625 31.7812 34.625
M21.9219 38.8125
Q15.5781 40.375 12.0312 44.7188
Q8.5 49.0781 8.5 55.3281
Q8.5 64.0625 14.7188 69.1406
Q20.9531 74.2188 31.7812 74.2188
Q42.6719 74.2188 48.875 69.1406
Q55.0781 64.0625 55.0781 55.3281
Q55.0781 49.0781 51.5312 44.7188
Q48 40.375 41.7031 38.8125
Q48.8281 37.1562 52.7969 32.3125
Q56.7812 27.4844 56.7812 20.5156
Q56.7812 9.90625 50.3125 4.23438
Q43.8438 -1.42188 31.7812 -1.42188
Q19.7344 -1.42188 13.25 4.23438
Q6.78125 9.90625 6.78125 20.5156
Q6.78125 27.4844 10.7812 32.3125
Q14.7969 37.1562 21.9219 38.8125
M18.3125 54.3906
Q18.3125 48.7344 21.8438 45.5625
Q25.3906 42.3906 31.7812 42.3906
Q38.1406 42.3906 41.7188 45.5625
Q45.3125 48.7344 45.3125 54.3906
Q45.3125 60.0625 41.7188 63.2344
Q38.1406 66.4062 31.7812 66.4062
Q25.3906 66.4062 21.8438 63.2344
Q18.3125 60.0625 18.3125 54.3906" id="BitstreamVeraSans-Roman-38"/>
      </defs>
      <g transform="translate(50.52875 47.5678125)scale(0.12 -0.12)">
       <use xlink:href="#BitstreamVeraSans-Roman-30"/>
       <use x="63.623046875" xlink:href="#BitstreamVeraSans-Roman-2e"/>
       <use x="95.41015625" xlink:href="#BitstreamVeraSans-Roman-38"/>
      </g>
     </g>
    </g>
    <g id="text_16">
     <!-- acceleration -->
     <defs>
      <path d="
M54.8906 33.0156
L54.8906 0
L45.9062 0
L45.9062 32.7188
Q45.9062 40.4844 42.875 44.3281
Q39.8438 48.1875 33.7969 48.1875
Q26.5156 48.1875 22.3125 43.5469
Q18.1094 38.9219 18.1094 30.9062
L18.1094 0
L9.07812 0
L9.07812 54.6875
L18.1094 54.6875
L18.1094 46.1875
Q21.3438 51.125 25.7031 53.5625
Q30.0781 56 35.7969 56
Q45.2188 56 50.0469 50.1719
Q54.8906 44.3438 54.8906 33.0156" id="BitstreamVeraSans-Roman-6e"/>
      <path d="
M34.2812 27.4844
Q23.3906 27.4844 19.1875 25
Q14.9844 22.5156 14.9844 16.5
Q14.9844 11.7188 18.1406 8.90625
Q21.2969 6.10938 26.7031 6.10938
Q34.1875 6.10938 38.7031 11.4062
Q43.2188 16.7031 43.2188 25.4844
L43.2188 27.4844
z

M52.2031 31.2031
L52.2031 0
L43.2188 0
L43.2188 8.29688
Q40.1406 3.32812 35.5469 0.953125
Q30.9531 -1.42188 24.3125 -1.42188
Q15.9219 -1.42188 10.9531 3.29688
Q6 8.01562 6 15.9219
Q6 25.1406 12.1719 29.8281
Q18.3594 34.5156 30.6094 34.5156
L43.2188 34.5156
L43.2188 35.4062
Q43.2188 41.6094 39.1406 45
Q35.0625 48.3906 27.6875 48.3906
Q23 48.3906 18.5469 47.2656
Q14.1094 46.1406 10.0156 43.8906
L10.0156 52.2031
Q14.9375 54.1094 19.5781 55.0469
Q24.2188 56 28.6094 56
Q40.4844 56 46.3438 49.8438
Q52.2031 43.7031 52.2031 31.2031" id="BitstreamVeraSans-Roman-61"/>
      <path d="
M30.6094 48.3906
Q23.3906 48.3906 19.1875 42.75
Q14.9844 37.1094 14.9844 27.2969
Q14.9844 17.4844 19.1562 11.8438
Q23.3438 6.20312 30.6094 6.20312
Q37.7969 6.20312 41.9844 11.8594
Q46.1875 17.5312 46.1875 27.2969
Q46.1875 37.0156 41.9844 42.7031
Q37.7969 48.3906 30.6094 48.3906
M30.6094 56
Q42.3281 56 49.0156 48.375
Q55.7188 40.7656 55.7188 27.2969
Q55.7188 13.875 49.0156 6.21875
Q42.3281 -1.42188 30.6094 -1.42188
Q18.8438 -1.42188 12.1719 6.21875
Q5.51562 13.875 5.51562 27.2969
Q5.51562 40.7656 12.1719 48.375
Q18.8438 56 30.6094 56" id="BitstreamVeraSans-Roman-6f"/>
      <path d="
M9.42188 75.9844
L18.4062 75.9844
L18.4062 0
L9.42188 0
z
" id="BitstreamVeraSans-Roman-6c"/>
      <path d="
M41.1094 46.2969
Q39.5938 47.1719 37.8125 47.5781
Q36.0312 48 33.8906 48
Q26.2656 48 22.1875 43.0469
Q18.1094 38.0938 18.1094 28.8125
L18.1094 0
L9.07812 0
L9.07812 54.6875
L18.1094 54.6875
L18.1094 46.1875
Q20.9531 51.1719 25.4844 53.5781
Q30.0312 56 36.5312 56
Q37.4531 56 38.5781 55.875
Q39.7031 55.7656 41.0625 55.5156
z
" id="BitstreamVeraSans-Roman-72"/>
      <path d="
M48.7812 52.5938
L48.7812 44.1875
Q44.9688 46.2969 41.1406 47.3438
Q37.3125 48.3906 33.4062 48.3906
Q24.6562 48.3906 19.8125 42.8438
Q14.9844 37.3125 14.9844 27.2969
Q14.9844 17.2812 19.8125 11.7344
Q24.6562 6.20312 33.4062 6.20312
Q37.3125 6.20312 41.1406 7.25
Q44.9688 8.29688 48.7812 10.4062
L48.7812 2.09375
Q45.0156 0.34375 40.9844 -0.53125
Q36.9688 -1.42188 32.4219 -1.42188
Q20.0625 -1.42188 12.7812 6.34375
Q5.51562 14.1094 5.51562 27.2969
Q5.51562 40.6719 12.8594 48.3281
Q20.2188 56 33.0156 56
Q37.1562 56 41.1094 55.1406
Q45.0625 54.2969 48.7812 52.5938" id="BitstreamVeraSans-Roman-63"/>
     </defs>
     <g transform="translate(45.380625 251.9221875)rotate(-90.0)scale(0.12 -0.12)">
      <use xlink:href="#BitstreamVeraSans-Roman-61"/>
      <use x="61.279296875" xlink:href="#BitstreamVeraSans-Roman-63"/>
      <use x="116.259765625" xlink:href="#BitstreamVeraSans-Roman-63"/>
      <use x="171.240234375" xlink:href="#BitstreamVeraSans-Roman-65"/>
      <use x="232.763671875" xlink:href="#BitstreamVeraSans-Roman-6c"/>
      <use x="260.546875" xlink:href="#BitstreamVeraSans-Roman-65"/>
      <use x="322.0703125" xlink:href="#BitstreamVeraSans-Roman-72"/>
      <use x="363.18359375" xlink:href="#BitstreamVeraSans-Roman-61"/>
      <use x="424.462890625" xlink:href="#BitstreamVeraSans-Roman-74"/>
      <use x="463.671875" xlink:href="#BitstreamVeraSans-Roman-69"/>
      <use x="491.455078125" xlink:href="#BitstreamVeraSans-Roman-6f"/>
      <use x="552.63671875" xlink:href="#BitstreamVeraSans-Roman-6e"/>
     </g>
    </g>
   </g>
   <g id="patch_3">
    <path d="
M72 43.2
L518.4 43.2" style="fill:none;stroke:#000000;"/>
   </g>
   <g id="patch_4">
    <path d="
M518.4 388.8
L518.4 43.2" style="fill:none;stroke:#000000;"/>
   </g>
   <g id="patch_5">
    <path d="
M72 388.8
L518.4 388.8" style="fill:none;stroke:#000000;"/>
   </g>
   <g id="patch_6">
    <path d="
M72 388.8
L72 43.2" style="fill:none;stroke:#000000;"/>
   </g>
   <g id="text_17">
    <!-- kickPied.txt.json acceleration -->
    <defs>
     <path id="BitstreamVeraSans-Roman-20"/>
     <path d="
M9.42188 54.6875
L18.4062 54.6875
L18.4062 -0.984375
Q18.4062 -11.4219 14.4219 -16.1094
Q10.4531 -20.7969 1.60938 -20.7969
L-1.8125 -20.7969
L-1.8125 -13.1875
L0.59375 -13.1875
Q5.71875 -13.1875 7.5625 -10.8125
Q9.42188 -8.45312 9.42188 -0.984375
z

M9.42188 75.9844
L18.4062 75.9844
L18.4062 64.5938
L9.42188 64.5938
z
" id="BitstreamVeraSans-Roman-6a"/>
     <path d="
M9.07812 75.9844
L18.1094 75.9844
L18.1094 31.1094
L44.9219 54.6875
L56.3906 54.6875
L27.3906 29.1094
L57.625 0
L45.9062 0
L18.1094 26.7031
L18.1094 0
L9.07812 0
z
" id="BitstreamVeraSans-Roman-6b"/>
     <path d="
M19.6719 64.7969
L19.6719 37.4062
L32.0781 37.4062
Q38.9688 37.4062 42.7188 40.9688
Q46.4844 44.5312 46.4844 51.125
Q46.4844 57.6719 42.7188 61.2344
Q38.9688 64.7969 32.0781 64.7969
z

M9.8125 72.9062
L32.0781 72.9062
Q44.3438 72.9062 50.6094 67.3594
Q56.8906 61.8125 56.8906 51.125
Q56.8906 40.3281 50.6094 34.8125
Q44.3438 29.2969 32.0781 29.2969
L19.6719 29.2969
L19.6719 0
L9.8125 0
z
" id="BitstreamVeraSans-Roman-50"/>
     <path d="
M54.8906 54.6875
L35.1094 28.0781
L55.9062 0
L45.3125 0
L29.3906 21.4844
L13.4844 0
L2.875 0
L24.125 28.6094
L4.6875 54.6875
L15.2812 54.6875
L29.7812 35.2031
L44.2812 54.6875
z
" id="BitstreamVeraSans-Roman-78"/>
     <path d="
M45.4062 46.3906
L45.4062 75.9844
L54.3906 75.9844
L54.3906 0
L45.4062 0
L45.4062 8.20312
Q42.5781 3.32812 38.25 0.953125
Q33.9375 -1.42188 27.875 -1.42188
Q17.9688 -1.42188 11.7344 6.48438
Q5.51562 14.4062 5.51562 27.2969
Q5.51562 40.1875 11.7344 48.0938
Q17.9688 56 27.875 56
Q33.9375 56 38.25 53.625
Q42.5781 51.2656 45.4062 46.3906
M14.7969 27.2969
Q14.7969 17.3906 18.875 11.75
Q22.9531 6.10938 30.0781 6.10938
Q37.2031 6.10938 41.2969 11.75
Q45.4062 17.3906 45.4062 27.2969
Q45.4062 37.2031 41.2969 42.8438
Q37.2031 48.4844 30.0781 48.4844
Q22.9531 48.4844 18.875 42.8438
Q14.7969 37.2031 14.7969 27.2969" id="BitstreamVeraSans-Roman-64"/>
     <path d="
M44.2812 53.0781
L44.2812 44.5781
Q40.4844 46.5312 36.375 47.5
Q32.2812 48.4844 27.875 48.4844
Q21.1875 48.4844 17.8438 46.4375
Q14.5 44.3906 14.5 40.2812
Q14.5 37.1562 16.8906 35.375
Q19.2812 33.5938 26.5156 31.9844
L29.5938 31.2969
Q39.1562 29.25 43.1875 25.5156
Q47.2188 21.7812 47.2188 15.0938
Q47.2188 7.46875 41.1875 3.01562
Q35.1562 -1.42188 24.6094 -1.42188
Q20.2188 -1.42188 15.4531 -0.5625
Q10.6875 0.296875 5.42188 2
L5.42188 11.2812
Q10.4062 8.6875 15.2344 7.39062
Q20.0625 6.10938 24.8125 6.10938
Q31.1562 6.10938 34.5625 8.28125
Q37.9844 10.4531 37.9844 14.4062
Q37.9844 18.0625 35.5156 20.0156
Q33.0625 21.9688 24.7031 23.7812
L21.5781 24.5156
Q13.2344 26.2656 9.51562 29.9062
Q5.8125 33.5469 5.8125 39.8906
Q5.8125 47.6094 11.2812 51.7969
Q16.75 56 26.8125 56
Q31.7812 56 36.1719 55.2656
Q40.5781 54.5469 44.2812 53.0781" id="BitstreamVeraSans-Roman-73"/>
    </defs>
    <g transform="translate(190.48725 38.2)scale(0.144 -0.144)">
     <use xlink:href="#BitstreamVeraSans-Roman-6b"/>
     <use x="57.91015625" xlink:href="#BitstreamVeraSans-Roman-69"/>
     <use x="85.693359375" xlink:href="#BitstreamVeraSans-Roman-63"/>
     <use x="140.673828125" xlink:href="#BitstreamVeraSans-Roman-6b"/>
     <use x="198.583984375" xlink:href="#BitstreamVeraSans-Roman-50"/>
     <use x="256.63671875" xlink:href="#BitstreamVeraSans-Roman-69"/>
     <use x="284.419921875" xlink:href="#BitstreamVeraSans-Roman-65"/>
     <use x="345.943359375" xlink:href="#BitstreamVeraSans-Roman-64"/>
     <use x="409.419921875" xlink:href="#BitstreamVeraSans-Roman-2e"/>
     <use x="441.20703125" xlink:href="#BitstreamVeraSans-Roman-74"/>
     <use x="480.416015625" xlink:href="#BitstreamVeraSans-Roman-78"/>
     <use x="539.595703125" xlink:href="#BitstreamVeraSans-Roman-74"/>
     <use x="578.8046875" xlink:href="#BitstreamVeraSans-Roman-2e"/>
     <use x="610.591796875" xlink:href="#BitstreamVeraSans-Roman-6a"/>
     <use x="638.375" xlink:href="#BitstreamVeraSans-Roman-73"/>
     <use x="690.474609375" xlink:href="#BitstreamVeraSans-Roman-6f"/>
     <use x="751.65625" xlink:href="#BitstreamVeraSans-Roman-6e"/>
     <use x="815.03515625" xlink:href="#BitstreamVeraSans-Roman-20"/>
     <use x="846.822265625" xlink:href="#BitstreamVeraSans-Roman-61"/>
     <use x="908.1015625" xlink:href="#BitstreamVeraSans-Roman-63"/>
     <use x="963.08203125" xlink:href="#BitstreamVeraSans-Roman-63"/>
     <use x="1018.0625" xlink:href="#BitstreamVeraSans-Roman-65"/>
     <use x="1079.5859375" xlink:href="#BitstreamVeraSans-Roman-6c"/>
     <use x="1107.36914062" xlink:href="#BitstreamVeraSans-Roman-65"/>
     <use x="1168.89257812" xlink:href="#BitstreamVeraSans-Roman-72"/>
     <use x="1210.00585938" xlink:href="#BitstreamVeraSans-Roman-61"/>
     <use x="1271.28515625" xlink:href="#BitstreamVeraSans-Roman-74"/>
     <use x="1310.49414062" xlink:href="#BitstreamVeraSans-Roman-69"/>
     <use x="1338.27734375" xlink:href="#BitstreamVeraSans-Roman-6f"/>
     <use x="1399.45898438" xlink:href="#BitstreamVeraSans-Roman-6e"/>
    </g>
   </g>
  </g>
 </g>
 <defs>
  <clipPath id="p7ff5b81e1d">
   <rect height="345.6" width="446.4" x="72.0" y="43.2"/>
  </clipPath>
 </defs>
</svg>
